…
## import data

``` r
df_raw <- read_csv('../data/house_prices_regression/train.csv')
df <- df_raw
```

## first look at data

``` r
head(df_raw, 25)
```

    ## # A tibble: 25 x 81
    ##       Id MSSubClass MSZoning LotFrontage LotArea Street Alley LotShape
    ##    <dbl>      <dbl> <chr>          <dbl>   <dbl> <chr>  <chr> <chr>   
    ##  1     1         60 RL                65    8450 Pave   <NA>  Reg     
    ##  2     2         20 RL                80    9600 Pave   <NA>  Reg     
    ##  3     3         60 RL                68   11250 Pave   <NA>  IR1     
    ##  4     4         70 RL                60    9550 Pave   <NA>  IR1     
    ##  5     5         60 RL                84   14260 Pave   <NA>  IR1     
    ##  6     6         50 RL                85   14115 Pave   <NA>  IR1     
    ##  7     7         20 RL                75   10084 Pave   <NA>  Reg     
    ##  8     8         60 RL                NA   10382 Pave   <NA>  IR1     
    ##  9     9         50 RM                51    6120 Pave   <NA>  Reg     
    ## 10    10        190 RL                50    7420 Pave   <NA>  Reg     
    ## # ... with 15 more rows, and 73 more variables: LandContour <chr>,
    ## #   Utilities <chr>, LotConfig <chr>, LandSlope <chr>, Neighborhood <chr>,
    ## #   Condition1 <chr>, Condition2 <chr>, BldgType <chr>, HouseStyle <chr>,
    ## #   OverallQual <dbl>, OverallCond <dbl>, YearBuilt <dbl>, YearRemodAdd <dbl>,
    ## #   RoofStyle <chr>, RoofMatl <chr>, Exterior1st <chr>, Exterior2nd <chr>,
    ## #   MasVnrType <chr>, MasVnrArea <dbl>, ExterQual <chr>, ExterCond <chr>,
    ## #   Foundation <chr>, BsmtQual <chr>, BsmtCond <chr>, BsmtExposure <chr>, ...
…
